<svg version="1.2" xmlns="http://www.w3.org/2000/svg" viewBox="0 0 56 56" width="56" height="56">
	<title>New Project</title>
	<style>
		.s0 { opacity: .5;fill: #ffffff } 
	</style>
	<path id="" fill-rule="evenodd" class="s0" d="m36 32.7l8.6 8.6q1.5 1.5 0 3-0.4 0.8-1.3 0.8-1 0-1.7-0.8l-8.6-8.6q-3.8 2.6-7.9 2.6-5.6 0-9.6-3.9-3.9-3.9-3.9-9.6 0-5.6 3.9-9.5 4-4 9.6-4 5.6 0 9.6 4 3.9 3.9 3.9 9.5 0 4.2-2.6 7.9zm-18.4-0.4q3 3 7.5 3 4.5 0 7.5-3 3-3 3-7.5 0-4.5-3-7.5-3-3-7.5-3-4.5 0-7.5 3-3 3-3 7.5 0 4.5 3 7.5z"/>
</svg>